"instance_id","instance_type","theme_id","title","store_ids","widget_parameters","sort_order"
"1","TemplateMonster\FilmSlider\Block\Widget\FilmSlider","5","Slider","0","a:2:{s:5:""title"";s:0:"""";s:9:""slider_id"";s:1:""1"";}","0"
"2","TemplateMonster\CatalogImagesGrid\Block\CatalogImage\Grid","5","Catalog image grid","0","a:11:{s:7:""id_path"";s:10:""category/4"";s:5:""title"";s:10:""Bike Parts"";s:10:""image_type"";s:15:""thumbnail_image"";s:16:""image_categories"";s:1:""1"";s:19:""image_subcategories"";s:1:""0"";s:13:""columns_count"";s:1:""1"";s:17:""amount_categories"";s:1:""3"";s:20:""amount_subcategories"";s:1:""4"";s:9:""view_more"";s:1:""1"";s:14:""view_more_text"";s:8:""View All"";s:9:""css_class"";s:18:""catalog-img-grid-1"";}","0"
"3","TemplateMonster\ShopByBrand\Block\Widget\Brand","5","Brands","0","a:8:{s:5:""title"";s:0:"""";s:13:""brands_amount"";s:0:"""";s:13:""show_carousel"";s:1:""1"";s:15:""brands_per_view"";s:1:""6"";s:17:""brands_logo_width"";s:3:""260"";s:16:""show_brand_title"";s:1:""0"";s:9:""css_class"";s:13:""brands-widget"";s:6:""brands"";a:6:{i:0;s:1:""1"";i:1;s:1:""2"";i:2;s:1:""3"";i:3;s:1:""4"";i:4;s:1:""5"";i:5;s:1:""6"";}}","1"
"4","TemplateMonster\FeaturedProduct\Block\FeaturedProduct\Widget\Product","5","Featured products","0","a:20:{s:13:""product_types"";a:1:{i:0;s:14:""manual_product"";}s:11:""product_ids"";s:20:""1,2,3,4,5,6,7,8,9,10"";s:10:""conditions"";a:1:{i:1;a:1:{s:9:""new_child"";s:63:""Magento\CatalogWidget\Model\Rule\Condition\Product|category_ids"";}}s:9:""css_class"";s:19:""featured-products-1"";s:14:""cache_lifetime"";s:1:""0"";s:19:""product_image_width"";s:3:""400"";s:20:""product_image_height"";s:3:""350"";s:19:""product_name_length"";s:0:"""";s:15:""number_per_view"";s:1:""6"";s:13:""show_carousel"";s:1:""1"";s:17:""number_to_display"";s:1:""4"";s:10:""use_arrows"";s:1:""1"";s:11:""prev_button"";s:0:"""";s:11:""next_button"";s:0:"""";s:14:""use_pagination"";s:1:""0"";s:10:""show_label"";s:1:""0"";s:9:""is_banner"";s:1:""0"";s:14:""banner_content"";s:0:"""";s:10:""hover_type"";s:8:""switcher"";s:9:""json_data"";s:66:""{'manual_product':{'title':'Featured products','label':'Manual'} }"";}","2"
"5","TemplateMonster\FeaturedProduct\Block\FeaturedProduct\Widget\Product","5","New products","0","a:20:{s:13:""product_types"";a:1:{i:0;s:11:""new_product"";}s:11:""product_ids"";s:0:"""";s:10:""conditions"";a:1:{i:1;a:1:{s:9:""new_child"";s:63:""Magento\CatalogWidget\Model\Rule\Condition\Product|category_ids"";}}s:9:""css_class"";s:19:""featured-products-1"";s:14:""cache_lifetime"";s:1:""0"";s:19:""product_image_width"";s:3:""400"";s:20:""product_image_height"";s:3:""350"";s:19:""product_name_length"";s:0:"""";s:15:""number_per_view"";s:1:""6"";s:13:""show_carousel"";s:1:""1"";s:17:""number_to_display"";s:1:""4"";s:10:""use_arrows"";s:1:""1"";s:11:""prev_button"";s:0:"""";s:11:""next_button"";s:0:"""";s:14:""use_pagination"";s:1:""0"";s:10:""show_label"";s:1:""1"";s:9:""is_banner"";s:1:""0"";s:14:""banner_content"";s:0:"""";s:10:""hover_type"";s:8:""switcher"";s:9:""json_data"";s:55:""{'new_product':{'title':'New products','label':'New'} }"";}","4"
"6","Magento\Cms\Block\Widget\Block","5","Banner","0","a:1:{s:8:""block_id"";s:2:""14"";}","3"
"7","Magento\Cms\Block\Widget\Block","5","Banners","0","a:1:{s:8:""block_id"";s:2:""15"";}","5"
"8","TemplateMonster\Blog\Block\Widget\PostList","5","Latest post","0","a:5:{s:5:""title"";s:11:""Latest news"";s:17:""post_title_length"";s:0:"""";s:11:""post_amount"";s:1:""3"";s:19:""post_amount_per_row"";s:1:""3"";s:18:""is_enable_carousel"";s:1:""0"";}","0"
